module draft

go 1.21.0

require (
	github.com/go-kratos/kratos/v2 v2.7.2
	go.etcd.io/etcd/client/v3 v3.5.10
)

require (
	github.com/coreos/go-semver v0.3.0 // indirect
	github.com/coreos/go-systemd/v22 v22.3.2 // indirect
	github.com/gogo/protobuf v1.3.2 // indirect
	github.com/golang/protobuf v1.5.3 // indirect
	go.etcd.io/etcd/api/v3 v3.5.10 // indirect
	go.etcd.io/etcd/client/pkg/v3 v3.5.10 // indirect
	go.uber.org/atomic v1.7.0 // indirect
	go.uber.org/multierr v1.6.0 // indirect
	go.uber.org/zap v1.17.0 // indirect
	golang.org/x/net v0.17.0 // indirect
	golang.org/x/sys v0.13.0 // indirect
	golang.org/x/text v0.13.0 // indirect
	google.golang.org/genproto v0.0.0-20230711160842-782d3b101e98 // indirect
	google.golang.org/genproto/googleapis/api v0.0.0-20230711160842-782d3b101e98 // indirect
	google.golang.org/genproto/googleapis/rpc v0.0.0-20230711160842-782d3b101e98 // indirect
	google.golang.org/grpc v1.58.3 // indirect
	google.golang.org/protobuf v1.31.0 // indirect
)
