{
	"Backup": {
		"Key": "ENC[AES256_GCM,data:LYNGifYpNPTugNgJ0RWPIIJYvZCfo8sDlVExMIVNxC8=,iv:zWQKTgOSfqLzpT48SGA8yyCODzlGYL/7pkZq/jXEH1o=,tag:Z0bj5Axe3n4MyjnaeKj0RA==,type:str]",
		"IV": "ENC[AES256_GCM,data:wiyGryMhEPgjX/Z7MlR/SA==,iv:5NkvDyGPQcD+bUlFaMqbSnZcdomtFIp4BM8QyBjZfqA=,tag:MiRPNSSQhUoknVAW1VcUdQ==,type:str]"
	},
	"S3": [
		{
			"Name": "ENC[AES256_GCM,data:dIs9,iv:/0YMHJ8PDZZQLuRRSo1O/6qb2xs8MRgvR/RMMQPQ8KM=,tag:KIL+u4hgEo+R6I/g+QsrWg==,type:str]",
			"Endpoint": "ENC[AES256_GCM,data:JtFihb2kEF0LkU9hM97EWpZRuixqryu4dK+SGq7TVa+kTMs5EBt/,iv:xypFO9bi0JrgVESUhKatHpEMw5NfhudTAP+D8Tkj+hM=,tag:dXQ5TQWRImbWdFm2uh8mJQ==,type:str]",
			"Region": "ENC[AES256_GCM,data:rToglVjjUKTAyIOZZC4=,iv:A78cND0e7OVmlhlwsLwMy5vk2PxSqUquUS3yR4n5H0s=,tag:QKhWTrcI3lS7wRG+ad2K8w==,type:str]",
			"Key": "ENC[AES256_GCM,data:qE+CLIpGPm8SlZ38XROehN0rvi8=,iv:3X7WZxVa1gjkjJ2amXZ8mj9WFqRh413A0Ic6B+/wEK8=,tag:94q1p9MFPNlDSJUQoXg8fg==,type:str]",
			"Secret": "ENC[AES256_GCM,data:jZcvI8WIOr37bOPnNSVyXx94Ajkw5lxxM9DRyfPGvrOKmOHtdA0EAg==,iv:LDPGaLjICWt0BlJU2+EL8aa/aXasWByD/cCvtDw0pas=,tag:tarPRL9tzzEq/IeremapTw==,type:str]",
			"Bucket": "ENC[AES256_GCM,data:tRbekbeJN1LO,iv:OZxSJXsLmsqSAchcma/trGhjOEshIB+MF/0I+YkUc5M=,tag:KavqP2fvH4HL6oM7YYGVJA==,type:str]"
		},
		{
			"Name": "ENC[AES256_GCM,data:Rv8=,iv:W6NB+tCM7ZYcb/mGPapP/Lxlfr9+dIogXiHcqKJC3ms=,tag:oT3bLo6T2rKbG8tovq/Nbw==,type:str]",
			"Endpoint": "ENC[AES256_GCM,data:t7JO4mDn0F2ntNWE4EAXwYnxr5x51bK7GqLX5ewMllq5KDq2m+KLdRn/GJ8U2owiGMaY6+aOgPQcHfhZDrQ+57M=,iv:Nq7wncKhclUQTfoBYmjeqHxdtzTX6L0bzuYJiaoIm+c=,tag:hrrY4QBfHz3WpLEfb+sZzg==,type:str]",
			"Region": "ENC[AES256_GCM,data:f1WflQ==,iv:AC751NJnhy2fGD7YRQGs96+SoOPIPJBFwGkFJdSu2us=,tag:2qqk/bqbJmzfYcb8Kh89Fg==,type:str]",
			"Key": "ENC[AES256_GCM,data:m4cD0x3Ztuvo28N9B3ZSyypKnxNhQqRJ5/mh7eWbexA=,iv:mUktIomUqMJPPx2UnbT9W3BaOSxcBrWxIhyhn4Btbyk=,tag:BLWRAIoFDcysP4/xuZBBaQ==,type:str]",
			"Secret": "ENC[AES256_GCM,data:TsNGJA+TEz8yZvFhmuhkgO30pgMsPrjfWvXSf3vBMJRTy76bAziJK2EgYs6EeZvSIX0z13oIUGwsl+oTblCIIg==,iv:UcYAAwAgsPJWM/8vmNO66Eeb9LyrDMG7ftrAZAeu34g=,tag:cgzOpzyviuq51Kao3YKD/g==,type:str]",
			"Bucket": "ENC[AES256_GCM,data:x+qC5Rey,iv:NOGe61Qxs5+BeR0/3w/Rc1cK5asXNNwx1PHs7I31hLI=,tag:4UyKaYoWpfPlJW50f/DIaQ==,type:str]",
			"_Token": "ENC[AES256_GCM,data:tf2YnanzzUzxzQxSUuVYFT7KejRSwbFR7HZQwH5LfHxzhVj3r6CH1Q==,iv:oPSWm1EmHyLvZiTmr60DY3GW27x4HlH20cO8mAmkYH0=,tag:vyVA1aDyFGLEhsv2r7cUqw==,type:str]"
		}
	],
	"sops": {
		"kms": null,
		"gcp_kms": null,
		"azure_kv": null,
		"hc_vault": null,
		"age": [
			{
				"recipient": "age15q96zk9axrsku3pncqgu4scxgndsdkuvtnlpn8cklj5dhxwpzguqp5t398",
				"enc": "-----BEGIN AGE ENCRYPTED FILE-----\nYWdlLWVuY3J5cHRpb24ub3JnL3YxCi0+IFgyNTUxOSBjMjA1bm9mM3hNQzl4K3Rw\ncUFhRXRidWw2c0QxWkEvTTRKZVdIMXpMZlZVCk0yTE1LbXErUVY1bndTMEZxS05G\nWFlqNW1wbFRybDltNzFMeXQwV1IxUEUKLS0tIDZIM3oxTjhqV0dZN1RKdnZRdTVP\nbWJFOXBtNG5YdktzUVlTMy9QY3VzK0kKBbgMwdCWubEJcKxLsObASb6dY4+K3D43\nu83+fynMzgrbBRI6aowES7V+ph7WWAcMbdT0oBtlxKsnDJ3JV8nQ+Q==\n-----END AGE ENCRYPTED FILE-----\n"
			}
		],
		"lastmodified": "2024-12-27T06:34:22Z",
		"mac": "ENC[AES256_GCM,data:lsFgLjviSnQyr/bbzAzyzWJZm1AnIVU1oCsnhkn5KRPvFR6/KtbETwpbQDRxP5JQFMyBiGFwqJV2Jh8U5DhrzO/Z589SDIdasqw6j76v0j+RehH3aBsSRYN5tdqp0/VoTWrTSgrmCZ0EIwis1SJUmDk5IOv6TB3RbqaDbksXEpA=,iv:Fqy8JF4YLShCCqL1XV4kXAwlO42xSlIjK+NEbLmSW+M=,tag:wd8pf1eOzQeSFotnUXfM0A==,type:str]",
		"pgp": null,
		"unencrypted_suffix": "_unencrypted",
		"version": "3.9.1"
	}
}